%YAML 1.1
%TAG !u! tag:unity3d.com,2011:
--- !u!1001 &2424653539629133636
PrefabInstance:
  m_ObjectHideFlags: 0
  serializedVersion: 2
  m_Modification:
    serializedVersion: 3
    m_TransformParent: {fileID: 0}
    m_Modifications:
    - target: {fileID: 1617001937844396761, guid: ee173b1e30a5e8640b1e5306b8f599a8, type: 3}
      propertyPath: m_LocalPosition.x
      value: 0
      objectReference: {fileID: 0}
    - target: {fileID: 1617001937844396761, guid: ee173b1e30a5e8640b1e5306b8f599a8, type: 3}
      propertyPath: m_LocalPosition.y
      value: 1.5
      objectReference: {fileID: 0}
    - target: {fileID: 1617001937844396761, guid: ee173b1e30a5e8640b1e5306b8f599a8, type: 3}
      propertyPath: m_LocalPosition.z
      value: 0
      objectReference: {fileID: 0}
    - target: {fileID: 1617001937844396761, guid: ee173b1e30a5e8640b1e5306b8f599a8, type: 3}
      propertyPath: m_LocalRotation.w
      value: 0.7071068
      objectReference: {fileID: 0}
    - target: {fileID: 1617001937844396761, guid: ee173b1e30a5e8640b1e5306b8f599a8, type: 3}
      propertyPath: m_LocalRotation.x
      value: 0
      objectReference: {fileID: 0}
    - target: {fileID: 1617001937844396761, guid: ee173b1e30a5e8640b1e5306b8f599a8, type: 3}
      propertyPath: m_LocalRotation.y
      value: 0.7071068
      objectReference: {fileID: 0}
    - target: {fileID: 1617001937844396761, guid: ee173b1e30a5e8640b1e5306b8f599a8, type: 3}
      propertyPath: m_LocalRotation.z
      value: 0
      objectReference: {fileID: 0}
    - target: {fileID: 1617001937844396761, guid: ee173b1e30a5e8640b1e5306b8f599a8, type: 3}
      propertyPath: m_LocalEulerAnglesHint.x
      value: 0
      objectReference: {fileID: 0}
    - target: {fileID: 1617001937844396761, guid: ee173b1e30a5e8640b1e5306b8f599a8, type: 3}
      propertyPath: m_LocalEulerAnglesHint.y
      value: 90
      objectReference: {fileID: 0}
    - target: {fileID: 1617001937844396761, guid: ee173b1e30a5e8640b1e5306b8f599a8, type: 3}
      propertyPath: m_LocalEulerAnglesHint.z
      value: 0
      objectReference: {fileID: 0}
    - target: {fileID: 8525109344323585504, guid: ee173b1e30a5e8640b1e5306b8f599a8, type: 3}
      propertyPath: m_Name
      value: floor 2 Variant
      objectReference: {fileID: 0}
    m_RemovedComponents: []
    m_RemovedGameObjects: []
    m_AddedGameObjects: []
    m_AddedComponents: []
  m_SourcePrefab: {fileID: 100100000, guid: ee173b1e30a5e8640b1e5306b8f599a8, type: 3}
